main.c:68:5:_write	24	static
main.c:74:6:HAL_SPI_ConvCpltCallback	48	static
main.c:84:6:ADXL_Init	8	static
main.c:92:6:readRegister	16	static
main.c:105:6:ADXL_getAccel	32	static
main.c:122:5:main	40	static
main.c:172:6:SystemClock_Config	232	static
main.c:227:13:MX_SPI2_Init	8	static
main.c:267:13:MX_USART2_UART_Init	8	static
main.c:302:13:MX_GPIO_Init	48	static
main.c:348:6:Error_Handler	4	static
